[{
  "relation": ["delegate_permission/common.handle_all_urls"],
  "target": {
    "namespace": "android_app",
    "package_name": "com.example.piggyteacherapp.com.example.piggyteacherapp",
    "sha256_cert_fingerprints":
    ["79:B4:AA:9C:F2:EE:B0:00:48:EE:98:65:C7:4D:30:FD:BB:66:20:93:0F:1C:B0:E1:37:3D:AA:0A:ED:BC:9D:6F"]
  }
}]